{
    "api/form": {
        "title": "Envoi d'un formulaire",
        "updated": "2013-11-13 11:38",
        "changelog": {
            "2013-11-13 10:58": "Mise en ligne de la documentation."
        },
        "short_description": "Envoyer un formulaire à l'API",
        "description": "Pour envoyer un formulaire à l'API, il faut envoyer en paramètre chaque champ renseigné du formulaire en suivant la syntaxe suivante :\n <code>nom_du_formulaire[nom_du_champ]</code>\nConcrètement, il faut considérer le nom du formulaire comme un tableau qui contiendrait chaque champs et leurs valeurs.\nPar exemple, pour le champ <em>username</em> du formulaire <em>la_user_api_registration</em>, on enverra:\n<code>la_user_api_registration[username]</code>\n\nDans certains cas, on a à faire à des formulaires imbriquées, il faut dans ce cas rajouter une dimension au tableau:\n<code>nom_du_formulaire[nom_du_formulaire_enfant][nom_du_champ]</code>\nPar exemple, pour le champ <em>firstName</em> du formulaire <em>crmTmp</em>, enfant du formulaire <em>la_user_api_registration</em>, on aura :\n<code>la_user_api_registration[crmTmp][firstName]</code>\n\nEn cas d'erreur, on récupère un json portant l'error_message <code>validation_failed</code>, avec un détail des champs du formulaire en echec, ainsi qu'une clé et un message associés à chaque erreur.",
        "warning": null,
        "links": [
            {
                "link": "@appendix_user_registrationfields@"
            },
            {
                "link": "@appendix_user_profilefields@"
            },
            {
                "link": "@appendix_api_restapi@"
            }
        ]
    }
}